<svg width="12" height="16" viewBox="0 0 12 16" fill="none" xmlns="http://www.w3.org/2000/svg">
<path fill-rule="evenodd" clip-rule="evenodd" d="M0.923077 14H11.0769C11.5493 14 12 14.4507 12 15C12 15.5493 11.5493 16 11.0769 16H0.923077C0.450667 16 0 15.5493 0 15C0 14.4507 0.450667 14 0.923077 14Z" fill="#6F6DCC"/>
<path fill-rule="evenodd" clip-rule="evenodd" d="M0.324244 7.04807L5.24259 11.6956C5.29629 11.746 5.35106 11.7725 5.40476 11.8233C5.43142 11.8485 5.45809 11.8485 5.4862 11.8737C5.51287 11.8989 5.56801 11.8989 5.59467 11.9244C5.62134 11.9496 5.67648 11.9496 5.70314 11.9496C5.72981 11.9496 5.75648 11.9748 5.81162 11.9748C5.86495 11.9748 5.94676 12 6.00009 12C6.00009 12 6.00009 12 6.02676 12C6.08045 12 6.1619 12 6.21559 11.9748C6.24226 11.9748 6.26893 11.9496 6.29704 11.9496C6.3237 11.9496 6.37884 11.9244 6.40551 11.9244C6.43218 11.8989 6.48731 11.8989 6.51398 11.8737C6.54065 11.8485 6.56731 11.8485 6.59542 11.8233C6.64912 11.7977 6.7039 11.746 6.75759 11.6956C6.75759 11.6956 6.75759 11.6956 6.78426 11.6956L11.6759 7.04807C12.108 6.6398 12.108 6.00136 11.6759 5.5931C11.459 5.38812 11.1887 5.28699 10.9184 5.28699C10.6482 5.28699 10.3779 5.38948 10.1613 5.5931L7.0812 8.50474V1.02151C7.0812 0.46036 6.59398 0 6.00009 0C5.4062 0 4.91898 0.46036 4.91898 1.02151V8.50474L1.83744 5.5931C1.62086 5.38812 1.35058 5.28699 1.0803 5.28699C0.810025 5.28699 0.539746 5.38948 0.322803 5.5931C-0.107841 6.00136 -0.107841 6.6398 0.324244 7.04807Z" fill="#6F6DCC"/>
</svg>
