<svg width="21" height="21" viewBox="0 0 21 21" fill="none" xmlns="http://www.w3.org/2000/svg">
<path fill-rule="evenodd" clip-rule="evenodd" d="M15.2057 10.9565C14.784 11.4147 14.3218 11.8133 13.7999 12.1522C16.5115 12.2319 18.6809 14.4437 18.6809 17.1538V19.6051H1.40609V17.1538C1.40609 14.4437 3.57548 12.2319 6.28706 12.1522C5.76512 11.8133 5.28303 11.4147 4.88129 10.9565C2.06912 11.6538 0 14.165 0 17.1538V20.3027C0 20.6812 0.321391 21 0.703204 21H19.3838C19.7656 21 20.087 20.6812 20.087 20.3027V17.1538C20.087 14.165 18.0178 11.6538 15.2057 10.9565Z" fill="#FAC235"/>
<path fill-rule="evenodd" clip-rule="evenodd" d="M10.5 11.8696C7.24099 11.8696 4.56522 9.20953 4.56522 5.92463C4.56522 2.63972 7.24099 0 10.5 0C13.759 0 16.4348 2.66004 16.4348 5.94462C16.4348 9.22952 13.759 11.8696 10.5 11.8696ZM10.5 1.41061C8.00548 1.41061 5.97379 3.44578 5.97379 5.94461C5.97379 8.44343 8.00548 10.4586 10.5 10.4586C12.9946 10.4586 15.0263 8.42344 15.0263 5.92461C15.0263 3.42579 12.9946 1.41061 10.5 1.41061Z" fill="#FAC235"/>
</svg>
